F
F
D-
F
F
F
F
F
D-
F
F
F
F
F
F
F
F
F
F
F
D-
F
F
F
F
C
F
F
F
F
F
F
F
F
F
F
D+
F
F
F
D+
D-
F
F
D+
C
B
C-
B-
F
C+
D+
C
D+
F
B+
F
B-
F
C
C-
F
D-
D+
C
F
B+
C-
D+
A
A
A
A
A
A
A
A
A
A
A
A
A
A
A
A
A
A
A
A
A
A
A
A
A
A
A
A
A
A
A
A
A
A
A
A
A
A
A
A
A
A
A
A
A
A
A
A
A
A
A
A
A
A
A
A
A
A
A
A
A
A
A
A
A
A
A
A
A
A
A
A
A
A
A
A
A
A
A
A
A
A
A
A
A
A
A
A
A
A
A
A
A
A
A
A
A
A
A
A
A
A
A
A
A
A
A
A
A
A
A
A
A
A
A
A
A
A
A
A
A
A
A
A
A
A
A
A
A
A
A
A
A
A
A
A
A
A
A
A
A
A
A
A
A
A
A
A
A
A
A
A
A
A
A
A
A
A
A
A
A
A
